	simpson	timepoint
mid_01	0.9208163047125972	Mid-season
mid_02	0.6503649057638194	Mid-season
mid_03	0.7885485027190356	Mid-season
mid_04	0.8220078749647101	Mid-season
mid_05	0.6549081149597633	Mid-season
mid_06	0.8950854501147213	Mid-season
mid_07	0.9265506534052564	Mid-season
mid_08	0.9154936034461182	Mid-season
mid_09	0.8293054578374799	Mid-season
mid_11	0.9091611338930858	Mid-season
mid_12	0.9044836067564533	Mid-season
mid_13	0.8743630993774244	Mid-season
mid_14	0.9340609975286533	Mid-season
mid_15	0.797290306802676	Mid-season
mid_16	0.9160420217451252	Mid-season
mid_18	0.9409240478890989	Mid-season
mid_19	0.915081478992581	Mid-season
mid_20	0.9248467394977794	Mid-season
mid_21	0.9158346181730785	Mid-season
mid_22	0.8530359532001884	Mid-season
mid_23	0.9112942236670875	Mid-season
mid_24	0.7442577095138435	Mid-season
mid_25	0.7349928829150056	Mid-season
mid_26	0.9219528866542723	Mid-season
mid_27	0.8463913824942428	Mid-season
mid_28	0.8715347132560454	Mid-season
mid_29	0.8666903844333029	Mid-season
mid_30	0.9253012669990761	Mid-season
mid_31	0.8757468911655922	Mid-season
off_01	0.9377596745246667	Off-season
off_02	0.7093827894513134	Off-season
off_03	0.8789623175743431	Off-season
off_04	0.9027974273041166	Off-season
off_06	0.9378488811031372	Off-season
off_07	0.9527969118689538	Off-season
off_08	0.8561719505224178	Off-season
off_12	0.9241521679703697	Off-season
off_13	0.9430872653096005	Off-season
off_14	0.7426519497026356	Off-season
off_15	0.9129168105151864	Off-season
off_16	0.9275790855685675	Off-season
off_20	0.9056849658426505	Off-season
off_21	0.9519468542663754	Off-season
off_24	0.8647205504575695	Off-season
off_25	0.9033529097309448	Off-season
off_26	0.9556183083387328	Off-season
off_28	0.867759424800411	Off-season
off_31	0.9488029842188741	Off-season
off_33	0.8179933475658412	Off-season
off_34	0.9152410419406677	Off-season
post_01	0.9431650232656921	Post-season
post_02	0.704904785859829	Post-season
post_03	0.8332917751451647	Post-season
post_04	0.8308030332874059	Post-season
post_06	0.8804455914751532	Post-season
post_07	0.9012178767852683	Post-season
post_09	0.8937908467645979	Post-season
post_12	0.9117689640799554	Post-season
post_13	0.8972240993500148	Post-season
post_14	0.870875497812366	Post-season
post_15	0.9057561447018674	Post-season
post_16	0.9302576841661775	Post-season
post_19	0.8939707946320755	Post-season
post_20	0.8812250635098736	Post-season
post_22	0.9401834901807498	Post-season
post_24	0.8587189958694739	Post-season
post_25	0.8508092521475655	Post-season
post_26	0.827642102554606	Post-season
post_28	0.917750992200095	Post-season
post_29	0.8694446121638091	Post-season
post_30	0.9191795961261735	Post-season
post_31	0.8869553673600608	Post-season
