	simpson	group
conc_10	0.943202256982324	In-season Concussion
conc_11	0.9154792826980868	In-season Concussion
conc_18	0.9676901427824312	In-season Concussion
conc_23	0.9518595748409707	In-season Concussion
mid_01	0.9208163047125972	In-season
mid_02	0.6503649057638194	In-season
mid_03	0.7885485027190356	In-season
mid_04	0.8220078749647101	In-season
mid_05	0.6549081149597633	In-season
mid_06	0.8950854501147213	In-season
mid_07	0.9265506534052564	In-season
mid_08	0.9154936034461182	In-season
mid_09	0.8293054578374799	In-season
mid_11	0.9091611338930858	In-season
mid_12	0.9044836067564533	In-season
mid_13	0.8743630993774244	In-season
mid_14	0.9340609975286533	In-season
mid_15	0.797290306802676	In-season
mid_16	0.9160420217451252	In-season
mid_18	0.9409240478890989	In-season
mid_19	0.915081478992581	In-season
mid_20	0.9248467394977794	In-season
mid_21	0.9158346181730785	In-season
mid_22	0.8530359532001884	In-season
mid_23	0.9112942236670875	In-season
mid_24	0.7442577095138435	In-season
mid_25	0.7349928829150056	In-season
mid_26	0.9219528866542723	In-season
mid_27	0.8463913824942428	In-season
mid_28	0.8715347132560454	In-season
mid_29	0.8666903844333029	In-season
mid_30	0.9253012669990761	In-season
mid_31	0.8757468911655922	In-season
off_01	0.9377596745246667	Off-season
off_02	0.7093827894513134	Off-season
off_03	0.8789623175743431	Off-season
off_04	0.9027974273041166	Off-season
off_06	0.9378488811031372	Off-season
off_07	0.9527969118689538	Off-season
off_08	0.8561719505224178	Off-season
off_10	0.948254944695547	Off-season Concussion
off_11	0.9588837464010193	Off-season Concussion
off_12	0.9241521679703697	Off-season
off_13	0.9430872653096005	Off-season
off_14	0.7426519497026356	Off-season
off_15	0.9129168105151864	Off-season
off_16	0.9275790855685675	Off-season
off_18	0.9490444125531486	Off-season Concussion
off_20	0.9056849658426505	Off-season
off_21	0.9519468542663754	Off-season
off_23	0.947976140879009	Off-season Concussion
off_24	0.8647205504575695	Off-season
off_25	0.9033529097309448	Off-season
off_26	0.9556183083387328	Off-season
off_28	0.867759424800411	Off-season
off_31	0.9488029842188741	Off-season
off_33	0.8179933475658412	Off-season
off_34	0.9152410419406677	Off-season
post_01	0.9431650232656921	In-season
post_02	0.704904785859829	In-season
post_03	0.8332917751451647	In-season
post_04	0.8308030332874059	In-season
post_06	0.8804455914751532	In-season
post_07	0.9012178767852683	In-season
post_09	0.8937908467645979	In-season
post_12	0.9117689640799554	In-season
post_13	0.8972240993500148	In-season
post_14	0.870875497812366	In-season
post_15	0.9057561447018674	In-season
post_16	0.9302576841661775	In-season
post_19	0.8939707946320755	In-season
post_20	0.8812250635098736	In-season
post_22	0.9401834901807498	In-season
post_24	0.8587189958694739	In-season
post_25	0.8508092521475655	In-season
post_26	0.827642102554606	In-season
post_28	0.917750992200095	In-season
post_29	0.8694446121638091	In-season
post_30	0.9191795961261735	In-season
post_31	0.8869553673600608	In-season
