name	conc_10	conc_11	conc_18	conc_23	mid_01	mid_06	mid_07	mid_12	mid_15	mid_18	mid_20	mid_22	mid_23	mid_26	mid_31	off_01	off_07	off_10	off_11	off_15	off_18	off_20	off_26	post_01	post_06	post_07	post_12	post_15	post_20	post_22	post_26
Proteobacteria	138446.0	36412.0	61411.0	72710.0	56490.0	128923.0	65357.0	112987.0	110541.0	37846.0	68363.0	53775.0	26213.0	43710.0	103902.0	139805.0	129406.0	99659.0	267567.0	317687.0	118688.0	149664.0	72574.0	94949.0	51280.0	22209.0	86146.0	48595.0	30991.0	41726.0	9524.0
Firmicutes	88627.0	90346.0	120616.0	111207.0	181590.0	89109.0	110083.0	77059.0	97658.0	96987.0	104064.0	76723.0	68293.0	154683.0	108408.0	240321.0	273595.0	236085.0	110473.0	86559.0	246347.0	166856.0	233337.0	88762.0	110338.0	80056.0	114727.0	86239.0	143831.0	85691.0	73057.0
Actinobacteria	203.0	491.0	225.0	245.0	330.0	257.0	379.0	104.0	233.0	127.0	268.0	239.0	98.0	888.0	566.0	506.0	514.0	614.0	307.0	335.0	737.0	409.0	443.0	296.0	263.0	290.0	190.0	426.0	356.0	351.0	188.0
Armatimonadetes	123.0	82.0	129.0	124.0	229.0	118.0	122.0	89.0	114.0	131.0	178.0	90.0	83.0	153.0	132.0	163.0	177.0	246.0	82.0	58.0	118.0	107.0	179.0	128.0	126.0	68.0	107.0	165.0	104.0	214.0	17.0
Tenericutes	49.0	30.0	18.0	9.0	46.0	38.0	19.0	10.0	36.0	13.0	38.0	10.0	13.0	16.0	55.0	23.0	85.0	63.0	80.0	65.0	162.0	70.0	64.0	30.0	14.0	30.0	38.0	72.0	46.0	35.0	8.0
Cyanobacteria	20.0	21.0	13.0	19.0	22.0	30.0	14.0	12.0	20.0	12.0	24.0	12.0	9.0	16.0	34.0	25.0	35.0	37.0	37.0	23.0	166.0	24.0	145.0	20.0	19.0	11.0	16.0	38.0	35.0	42.0	7.0
Deinococcus-Thermus	9.0	5.0	6.0	5.0	5.0	6.0	7.0	3.0	0.0	3.0	2.0	2.0	2.0	3.0	4.0	7.0	8.0	7.0	5.0	5.0	7.0	18.0	4.0	8.0	8.0	2.0	5.0	3.0	3.0	3.0	0.0
Chloroflexi	4.0	3.0	0.0	1.0	3.0	6.0	4.0	1.0	2.0	2.0	7.0	0.0	1.0	2.0	13.0	4.0	8.0	13.0	7.0	6.0	12.0	6.0	2.0	2.0	4.0	0.0	2.0	8.0	3.0	4.0	2.0
Bacteroidetes	2400.0	2626.0	791.0	2238.0	3398.0	9711.0	2518.0	994.0	5757.0	485.0	4198.0	3379.0	815.0	2679.0	15829.0	16403.0	7504.0	5023.0	5645.0	2252.0	3750.0	12621.0	2003.0	6085.0	7666.0	594.0	1470.0	1525.0	3291.0	1912.0	890.0
Chlorobi	3.0	0.0	0.0	0.0	0.0	0.0	0.0	0.0	1.0	0.0	0.0	0.0	0.0	0.0	1.0	1.0	0.0	0.0	1.0	1.0	0.0	1.0	0.0	0.0	1.0	0.0	0.0	0.0	1.0	1.0	0.0
Candidatus Cloacimonetes	2.0	5.0	1.0	0.0	1.0	4.0	0.0	0.0	2.0	1.0	2.0	3.0	0.0	0.0	1.0	2.0	5.0	2.0	2.0	4.0	14.0	7.0	2.0	1.0	0.0	2.0	0.0	7.0	2.0	5.0	0.0
Fusobacteria	1176.0	1534.0	424.0	864.0	942.0	2751.0	932.0	259.0	840.0	100.0	1969.0	1190.0	97.0	1153.0	5665.0	2167.0	4877.0	1108.0	4851.0	983.0	2484.0	3394.0	2268.0	1156.0	1763.0	495.0	908.0	484.0	646.0	2392.0	89.0
Candidatus Saccharibacteria	19.0	61.0	20.0	149.0	35.0	40.0	57.0	15.0	93.0	17.0	39.0	174.0	85.0	6.0	319.0	150.0	187.0	87.0	194.0	126.0	183.0	155.0	10.0	120.0	74.0	33.0	23.0	57.0	66.0	29.0	1.0
Spirochaetes	17.0	22.0	10.0	5.0	18.0	45.0	6.0	1.0	10.0	4.0	14.0	0.0	3.0	14.0	203.0	69.0	25.0	38.0	24.0	57.0	187.0	18.0	25.0	13.0	22.0	10.0	3.0	13.0	14.0	10.0	2.0
Chrysiogenetes	5.0	2.0	0.0	1.0	2.0	1.0	0.0	0.0	1.0	1.0	1.0	1.0	2.0	4.0	2.0	1.0	1.0	3.0	3.0	2.0	7.0	1.0	2.0	1.0	1.0	0.0	0.0	2.0	3.0	4.0	0.0
Thermotogae	4.0	2.0	3.0	2.0	3.0	2.0	4.0	1.0	3.0	4.0	2.0	1.0	2.0	5.0	5.0	2.0	5.0	4.0	4.0	3.0	11.0	6.0	3.0	2.0	4.0	4.0	2.0	1.0	2.0	5.0	2.0
Planctomycetes	2.0	2.0	1.0	1.0	4.0	2.0	5.0	1.0	3.0	2.0	1.0	2.0	2.0	4.0	2.0	2.0	0.0	2.0	1.0	1.0	20.0	3.0	12.0	3.0	0.0	0.0	1.0	4.0	6.0	6.0	2.0
Verrucomicrobia	1.0	1.0	0.0	0.0	0.0	0.0	0.0	1.0	1.0	1.0	1.0	0.0	0.0	3.0	1.0	0.0	0.0	0.0	0.0	0.0	3.0	0.0	1.0	0.0	1.0	0.0	0.0	0.0	2.0	0.0	0.0
Aquificae	2.0	0.0	3.0	1.0	4.0	10.0	2.0	2.0	1.0	0.0	1.0	0.0	2.0	0.0	2.0	5.0	3.0	5.0	3.0	4.0	5.0	5.0	4.0	1.0	1.0	0.0	4.0	5.0	3.0	5.0	2.0
Deferribacteres	2.0	0.0	1.0	2.0	0.0	2.0	0.0	0.0	1.0	0.0	0.0	0.0	1.0	1.0	3.0	4.0	1.0	5.0	1.0	3.0	1.0	3.0	1.0	0.0	1.0	2.0	1.0	0.0	1.0	1.0	0.0
Nitrospirae	1.0	0.0	2.0	1.0	0.0	0.0	1.0	0.0	0.0	1.0	0.0	0.0	1.0	1.0	0.0	0.0	0.0	0.0	0.0	1.0	19.0	0.0	7.0	0.0	0.0	0.0	0.0	1.0	0.0	1.0	0.0
Acidobacteria	1.0	0.0	1.0	0.0	0.0	1.0	1.0	0.0	1.0	0.0	0.0	1.0	0.0	0.0	2.0	2.0	1.0	2.0	2.0	0.0	2.0	0.0	0.0	0.0	1.0	1.0	0.0	5.0	0.0	8.0	0.0
Gemmatimonadetes	0.0	3.0	0.0	0.0	0.0	0.0	0.0	0.0	0.0	0.0	1.0	0.0	0.0	0.0	0.0	4.0	0.0	1.0	0.0	1.0	3.0	2.0	0.0	0.0	0.0	0.0	0.0	1.0	1.0	3.0	0.0
Synergistetes	0.0	1.0	1.0	4.0	2.0	3.0	1.0	0.0	1.0	0.0	1.0	0.0	2.0	0.0	6.0	0.0	0.0	2.0	0.0	0.0	4.0	1.0	0.0	0.0	6.0	1.0	0.0	0.0	0.0	1.0	0.0
Thermodesulfobacteria	0.0	0.0	4.0	3.0	2.0	2.0	2.0	0.0	3.0	4.0	2.0	2.0	2.0	1.0	3.0	0.0	3.0	6.0	2.0	1.0	0.0	1.0	2.0	0.0	3.0	0.0	1.0	1.0	5.0	5.0	4.0
Chlamydiae	0.0	0.0	0.0	0.0	1.0	3.0	1.0	1.0	0.0	1.0	2.0	0.0	1.0	0.0	0.0	0.0	1.0	3.0	2.0	3.0	1.0	0.0	0.0	1.0	0.0	0.0	1.0	1.0	1.0	4.0	1.0
